%YAML 1.1
%TAG !u! tag:unity3d.com,2011:
--- !u!162 &1
EditorUserSettings:
  m_ObjectHideFlags: 0
  serializedVersion: 4
  m_ConfigSettings:
    RecentlyUsedSceneGuid-0:
      value: 54520152060d5f080e5958211427064441151b287a7d25652f7c4963b4b1303c
      flags: 0
    RecentlyUsedSceneGuid-1:
      value: 5506075255040c0c550f09744922094410154c737479276278284467e0b26561
      flags: 0
    RecentlyUsedSceneGuid-2:
      value: 5654010354065f0e0e08097545255e444e154a727d7077617d2c4f65b1b06d6d
      flags: 0
    RecentlyUsedSceneGuid-3:
      value: 5a5757560101590a5d0c0e24427b5d44434e4c7a7b7a23677f2b4565b7b5353a
      flags: 0
    RecentlyUsedSceneGuid-4:
      value: 0150040354535e0e085a557516215e4446161b737b7c773174284c30b2e26060
      flags: 0
    RecentlyUsedSceneGuid-5:
      value: 5409575357075f5d5f08582048735e44444f1e287b7c27337c794e67b7b1613a
      flags: 0
    RecentlyUsedSceneGuid-6:
      value: 5709015007050f5f0c5e5c2048210844104e1978297077647f281e67b7e6326d
      flags: 0
    RecentlyUsedSceneGuid-7:
      value: 5507040001055a5d080d557412255a4414154d7b752a24622c2d1b67bae6636a
      flags: 0
    RecentlyUsedSceneGuid-8:
      value: 5a57060501040d5d54080a7316715b44154e4a79782c2064747d1e37e4e56c69
      flags: 0
    RecentlyUsedSceneGuid-9:
      value: 0009555e52530d08095b582144255d44101549737e7122367f2a1866e1b3613a
      flags: 0
    vcSharedLogLevel:
      value: 0d5e400f0650
      flags: 0
  m_VCAutomaticAdd: 1
  m_VCDebugCom: 0
  m_VCDebugCmd: 0
  m_VCDebugOut: 0
  m_SemanticMergeMode: 2
  m_DesiredImportWorkerCount: 3
  m_StandbyImportWorkerCount: 2
  m_IdleImportWorkerShutdownDelay: 60000
  m_VCShowFailedCheckout: 1
  m_VCOverwriteFailedCheckoutAssets: 1
  m_VCProjectOverlayIcons: 1
  m_VCHierarchyOverlayIcons: 1
  m_VCOtherOverlayIcons: 1
  m_VCAllowAsyncUpdate: 1
  m_ArtifactGarbageCollection: 1
